-------------------------------------------------------------------------------
Test set: mavenTest.HelloTest
-------------------------------------------------------------------------------
Tests run: 7, Failures: 0, Errors: 0, Skipped: 0, Time elapsed: 0.11 sec - in mavenTest.HelloTest
